<?xml version="1.0" encoding="UTF-8" standalone="no"?>
<!-- Created with Inkscape (http://www.inkscape.org/) -->

<svg
   xmlns:dc="http://purl.org/dc/elements/1.1/"
   xmlns:cc="http://creativecommons.org/ns#"
   xmlns:rdf="http://www.w3.org/1999/02/22-rdf-syntax-ns#"
   xmlns:svg="http://www.w3.org/2000/svg"
   xmlns="http://www.w3.org/2000/svg"
   xmlns:xlink="http://www.w3.org/1999/xlink"
   xmlns:sodipodi="http://sodipodi.sourceforge.net/DTD/sodipodi-0.dtd"
   xmlns:inkscape="http://www.inkscape.org/namespaces/inkscape"
   width="210mm"
   height="297mm"
   id="svg2"
   version="1.1"
   inkscape:version="0.48.3.1 r9886"
   sodipodi:docname="figuras.svg">
  <defs
     id="defs4">
    <marker
       inkscape:stockid="Arrow1Lend"
       orient="auto"
       refY="0.0"
       refX="0.0"
       id="Arrow1Lend"
       style="overflow:visible;">
      <path
         id="path3853"
         d="M 0.0,0.0 L 5.0,-5.0 L -12.5,0.0 L 5.0,5.0 L 0.0,0.0 z "
         style="fill-rule:evenodd;stroke:#000000;stroke-width:1.0pt;"
         transform="scale(0.8) rotate(180) translate(12.5,0)" />
    </marker>
    <marker
       inkscape:stockid="Arrow1Lstart"
       orient="auto"
       refY="0.0"
       refX="0.0"
       id="Arrow1Lstart"
       style="overflow:visible">
      <path
         id="path3850"
         d="M 0.0,0.0 L 5.0,-5.0 L -12.5,0.0 L 5.0,5.0 L 0.0,0.0 z "
         style="fill-rule:evenodd;stroke:#000000;stroke-width:1.0pt"
         transform="scale(0.8) translate(12.5,0)" />
    </marker>
    <marker
       inkscape:stockid="Arrow1Lend"
       orient="auto"
       refY="0"
       refX="0"
       id="Arrow1Lend-4"
       style="overflow:visible">
      <path
         inkscape:connector-curvature="0"
         id="path3853-6"
         d="M 0,0 5,-5 -12.5,0 5,5 0,0 z"
         style="fill-rule:evenodd;stroke:#000000;stroke-width:1pt"
         transform="matrix(-0.8,0,0,-0.8,-10,0)" />
    </marker>
    <marker
       inkscape:stockid="Arrow1Lend"
       orient="auto"
       refY="0"
       refX="0"
       id="Arrow1Lend-3"
       style="overflow:visible">
      <path
         inkscape:connector-curvature="0"
         id="path3853-4"
         d="M 0,0 5,-5 -12.5,0 5,5 0,0 z"
         style="fill-rule:evenodd;stroke:#000000;stroke-width:1pt"
         transform="matrix(-0.8,0,0,-0.8,-10,0)" />
    </marker>
    <marker
       inkscape:stockid="Arrow1Lend"
       orient="auto"
       refY="0"
       refX="0"
       id="Arrow1Lend-2"
       style="overflow:visible">
      <path
         inkscape:connector-curvature="0"
         id="path3853-3"
         d="M 0,0 5,-5 -12.5,0 5,5 0,0 z"
         style="fill-rule:evenodd;stroke:#000000;stroke-width:1pt"
         transform="matrix(-0.8,0,0,-0.8,-10,0)" />
    </marker>
    <marker
       inkscape:stockid="Arrow1Lend"
       orient="auto"
       refY="0"
       refX="0"
       id="Arrow1Lend-8"
       style="overflow:visible">
      <path
         inkscape:connector-curvature="0"
         id="path3853-47"
         d="M 0,0 5,-5 -12.5,0 5,5 0,0 z"
         style="fill-rule:evenodd;stroke:#000000;stroke-width:1pt"
         transform="matrix(-0.8,0,0,-0.8,-10,0)" />
    </marker>
    <marker
       inkscape:stockid="Arrow1Lend"
       orient="auto"
       refY="0"
       refX="0"
       id="Arrow1Lend-9"
       style="overflow:visible">
      <path
         inkscape:connector-curvature="0"
         id="path3853-5"
         d="M 0,0 5,-5 -12.5,0 5,5 0,0 z"
         style="fill-rule:evenodd;stroke:#000000;stroke-width:1pt"
         transform="matrix(-0.8,0,0,-0.8,-10,0)" />
    </marker>
    <marker
       inkscape:stockid="Arrow1Lend"
       orient="auto"
       refY="0"
       refX="0"
       id="Arrow1Lend-9-8"
       style="overflow:visible">
      <path
         inkscape:connector-curvature="0"
         id="path3853-5-3"
         d="M 0,0 5,-5 -12.5,0 5,5 0,0 z"
         style="fill-rule:evenodd;stroke:#000000;stroke-width:1pt"
         transform="matrix(-0.8,0,0,-0.8,-10,0)" />
    </marker>
  </defs>
  <sodipodi:namedview
     id="base"
     pagecolor="#ffffff"
     bordercolor="#666666"
     borderopacity="1.0"
     inkscape:pageopacity="0.0"
     inkscape:pageshadow="2"
     inkscape:zoom="0.5"
     inkscape:cx="-1794.0511"
     inkscape:cy="1867.0457"
     inkscape:document-units="px"
     inkscape:current-layer="layer1"
     showgrid="false"
     inkscape:window-width="722"
     inkscape:window-height="443"
     inkscape:window-x="1760"
     inkscape:window-y="295"
     inkscape:window-maximized="0"
     inkscape:showpageshadow="false"
     showborder="false" />
  <metadata
     id="metadata7">
    <rdf:RDF>
      <cc:Work
         rdf:about="">
        <dc:format>image/svg+xml</dc:format>
        <dc:type
           rdf:resource="http://purl.org/dc/dcmitype/StillImage" />
        <dc:title></dc:title>
      </cc:Work>
    </rdf:RDF>
  </metadata>
  <g
     inkscape:label="Capa 1"
     inkscape:groupmode="layer"
     id="layer1">
    <g
       id="g3067"
       transform="translate(-305.47013,-576.99914)">
      <g
         inkscape:export-ydpi="90"
         inkscape:export-xdpi="90"
         inkscape:export-filename="/home/leandro/git/doc-cmovil/img/flowRoot4683.png"
         transform="translate(-186.14286,-163.21429)"
         id="g3779">
        <rect
           style="fill:none;stroke:#000000;stroke-width:7.30000019;stroke-linecap:butt;stroke-linejoin:miter;stroke-miterlimit:4;stroke-opacity:1;stroke-dasharray:none"
           id="rect2985"
           width="249.28572"
           height="224.28572"
           x="127.14286"
           y="231.6479" />
        <flowRoot
           xml:space="preserve"
           id="flowRoot3755"
           style="font-size:40px;font-style:normal;font-weight:normal;line-height:125%;letter-spacing:0px;word-spacing:0px;fill:#000000;fill-opacity:1;stroke:none;font-family:Sans"
           transform="matrix(1.4590904,0,0,1.4590904,-110.20549,-111.93111)"><flowRegion
             id="flowRegion3757"><rect
               id="rect3759"
               width="197.14285"
               height="157.85715"
               x="149.28572"
               y="262.36218" /></flowRegion><flowPara
             id="flowPara3761"
             style="text-align:center;text-anchor:middle">Servicio</flowPara><flowPara
             id="flowPara3763"
             style="text-align:center;text-anchor:middle">Web</flowPara></flowRoot>      </g>
      <g
         inkscape:export-ydpi="90"
         inkscape:export-xdpi="90"
         inkscape:export-filename="/home/leandro/git/doc-cmovil/img/flowRoot4683.png"
         transform="translate(450.35714,-163.21429)"
         id="g3779-3">
        <g
           id="g3836">
          <image
             y="335.95242"
             x="214.81223"
             id="image3833"
             xlink:href="data:image/png;base64,iVBORw0KGgoAAAANSUhEUgAAAOQAAADdCAIAAAAkQEm/AAAAA3NCSVQICAjb4U/gAAAgAElEQVR4 nOy9WZMlx5Um9p3j7rHce3OvLBSqUCiAIFaCANemmmzOWPdMt/XMaGakMZnmRaY/IDP9Az3oWX9A epFJNmaSydpmetQtDofd02wOyeYOYiEWEmsBtS+53S0Wdz9HDxH35s3MwpJVhUJm9f0sLSrzVkRc j/DPj5/Nj5Oq4lijaT4BEEAAVQjAIUZrbIQQ4tgXucsBVsDCUHtNcz4DBrCYfQ0EwAMBAOAA+yk/ g8wcGcq7z9U0hgBUQKUQAY9Dkdu8Fkp5AYJYw6UAjYCKkAAZxIIACoAHUoA/5fbfIxz3xxCQgCbd 3MIAZE0GoKi3gXHufKVbg2KHYQCe9D9Pfm4Jugetn2BvG279zdPWutwuAiAO47IPhsuwuX0TUMCi eUCaXvJpD7N7CjrmkjUAEQCQQlv5qmAAda1JEgXXxnpVaAzNu/SESNexmZBBdoUZ+IBknd7ZfbpD WqfsDJOPJmJ+j3AVoFLw9qBaWOhVspWyEOpr21d7eXchXQNSIKWmtfuf5T7BfTDyPEBAOvmznUMT R4Be3Xn7Vy99Z3Nw4eknvv61J84qMsBM+NEIKmmvo1mNAvd0ztltTzM8BLSXcG17HMDdTtqeg8HF 7Zd//osf1mP9w3/wL0+vfhlwrQpBk1Ma3C98Pe5qgLYiULHnBwAwHG9fuPzazZ03ann/nfd/dq3/ luW4e1175owmQLP9yh+nJ9y9J5hpMwAgtkSjvefAAmwYg2GZMoa4+JNf/j+e3on8wQ9+9O8n+neD AMiB2x57HHeyYn+/TlAU6HXSvGPTDA8/ssau/8LL3wO2Z2ZbAPu6U2Z0A9wjpu6C97ThoDhUABCB ogQGFy7/poqXe8tlbwkPnX1gd/Yn7NJ9TtYjBts+xWzvErIcgD9x4oTh5Nq1G6C6X7x1pf9rYPwh 95G9PwcF3r1B69P4sEFYh3qxh836nbfe/cXCEm9t3Rz0x89+4cszdpUA4X7jKYDjT1YCDGBmxGHb wUTVyG+d6j7y7W/9s9Su5/mC0I0XX/0usA3yINkzye7iiMydM0zdo5xImlYVLl+48uLmznljeHFh /dmnv7WaPgwYoLHD/O4j3C/aaoPjTlYGUsACceLAauCBkXMMLKznzy5kT5Ujy0l/o//KK2//ABj4 2Ad805feT6/SA5rAJ4JOICL7PheRGGOM8cOu/QjEuOuqGY9rUQHG43hecOmNt35oXMmUj3ayL33+ nwpWgQQQoACq9pr7i6m4H8iqFuqARqJMEQRFgiSiC5x89sk/GQ+SLDd5r7h2842N4TvOFEABBBBE RCIO+ypEZEolmoB5z02aT4wxxphDPNFEVzaGiFBVEYRO10YZA6PUDH/56nfqeHNtbWV7Q7749D82 OB3jEmCAOIllEECtSL6PKHvcyTqd8fYZJRJbl9aixYMPrX791IlnqwLdhWSz/+477/8M2Fb0GyFk DMc4tU32qowf/c2qs5Rt4L333ocQYowH/3c/9jNpGqqgtkkE0RLwQBF1CAyvDH7zzvlfd7q2rrST PvSFc38ErDvuTNxwM57jW9z/eOP4k/XWYIe8Vhj0gFTQ+72v/kk5yqJncP/azdc3yncII6ASra2F c/t69UPs8dkvmICIMCGuiDjnnHPWWmPM9H8/CvvlX6OF26lCkecJUNXSdy4Idl565ce9RbO4sLxx o3z26W8yluvaTEZsE7Ky92u3Hv+n2vXhzzrSHZBLSAFIRF3Rcvrwww/+Xn8rSbJYhPdffeNHwBAo Jn74WZ/rVLh+lGSasrPRSqe/HzztoC77IY8gszoAkwFQVQUQAkaCkUH15sWXbm5cWl5eHg/NybUn Pn/qS0CmOvVSOSD91ENunx3ui6eiaT7KrP88z9wSgKpGlhpB+tXn/kuWdUUNs3Xp6ut9uQJ4nnUL 7HkbH2NmNRN9M8s3Wqm11tr9EcFGsn6UfN1l6qQNCiiMARSiQeBFy4wJGL32+gtLy93RsBzu8H/x 9T8l9ASaphp2W9qQlQ5rIx4LHHeyCigAAtBu6FgBRYwOcN7DWAEgMIvm8Scf+3aU2iYFePzqay+U OgCiCGS/sT6bBnVrNNN9M9fPfn5QYW1sr496hD265h7kWe5DkZABytfe+3VR9rMs29kuz57+4nr6 eAQzFBiHONy9k84MmKPghbt7uA9yA5pozd4HUWgEGIZgLQuCg62i/eLnv/XOB39hMuQ989qbPzlz 5smHV7vCMLyojUimJqGuGQAG8EAt8AwIhKGCwBCBEMTDi9alL31Zlb6K3gcREigbx4ascWzYJpZZ iU50TwjAk1lA0HDcAnk7J7STA08TA0TBpNayotoJ115+7acra53xsC9150vPfkuQEzqMVMFpmu4+ +1QvmmbD3C9m1nEna+OxasRSK1xJAcAZQOEM0KauSMc4YOG5p/7pz176y8VlWVivXn33z8+sLg7q BxeTZ6AptDHE3eTOUFSC64ohIYzR7xc3N7avbG1eGZWbN25cUvJEXikQREkIqiCSRMGkpARSVjAp K1H0kqTdxd7i8sra2sqJ5ZW1xWQhxQMJHhF0BWJhCQ4wQOojEYy18KjqOErN+Ac//u7Suqn9YNzX P/zGP1+zZ4DFKEtEGQExgu00IiBtRsuevJz7AcedrLfqEZr5D2AiJpuspd4Tp//w/csffHD1JwtL 1B9ffmvzV4+v/gtFFTVttAmlgWJHUQogKN5478ej8ub2zvX+8EbtR8bVWa5Jpqa3BfKgGhQn3gOF EmChE0mpjdlnAE6NU+kPwpWdq3jvMomICsEvPf25Pz594skH1x8EOiWkrilxS6ldBBJFYNSZiVdH bwfaqKrrED619kQvOQf0gNQ0iZGCSdajn818UDrwZo45jj1ZqQ237s3nb/yVkImSwK2wIQtUTz/x rSvX3tVQicivX3jjsT/+rwiejZIh4Ibg+mb9u8vX3rx06cLG9oaPNVuyjlyqSU6iCLGqh2WWZ4AF JW0C+EHoxLRXAliVQMYY1pZZDBBivLb907fe/f54VK2tnnny8S8/du65FAR4oIl0jBVbL73612W4 EHA1ofVHH/vKYu9JYBlw4ACYqGQMTfSWyTihCU3vI7Yed7I28hJtwvJUzO6uS5lhqgCcVrF3ZvFL jz78+nsf/GplrXPl0uZvL/zymbMpUG6XN85f/OWFq7/eHrwNHuWdbOlEZzQSttY6MkaJVYSisEhK pLtpCTpjGJFvv7RJUVUCMYAQIgHMMNZOPLSWSTc33u2tdFZPdorxpV+9/P4LL/3V6vIjaysPPXru qcXFRUdydfutqzfe7ixUBrLUWzv30PMZPTwzcURFmLyEvWli+xdQHHvcB2SdsSQwZWoAaiBOuqo9 RwWGVgX5uYe/+vb5V6tQZIv1a+9+L1savfLy70BeeUPtTmd1KOpjrIZFP+8thig+xrIOikikDdNU mizviVXUyFEKuykyShPrRgAwM5REYgihcRSIgBCt01G1Nao30jQ98VBHNYyHL968+KuN8ZnVlVNL S8tXrl60WYwgY1ceOfd8Sidbe79ddhYnD3/QXTWb63g/4Lgva8EtbF5qurCefGqBVBUkUEIkjMJ2 7i6+8N6fvfPBD5Ms7OwMlxbXinFgozapjA2KWkRDbaMqM5HZH6lSAZGBWoCgtp3TlUERVIHCwWYa 42baPE33lk5GInWUOoQ6ilchqCOkKmnwnGe98ahcWOwWxejUg+t/9NR/Z/D7wAM0o6qHUFs7peP0 RUw/uU+YimMvWXWvhdWuwWokSuPNabtKCGwgEMCT24i4sXLCJDdKm5QLy3XlL7k8hzJxUCXAMZwz mSWAxxFliLHxxVqbWJsYtnU9yReZ/SECMegWaStNEEtVAVFtZYSqL8cjl3CSJNYmLE6iVbFQt7h8 Ymuzr0KdTscY4xLb63U8hoVezChlSqEpg6FQTURBJICn9tnt3lzs+wTHXLLu0VNbx41OF3kCaOdC D1RAoSgExRDvf//v/s2oftfrFZdI4joqlpARGaLW3apiVBJBFB6xCcxMMKokIjGqRHUuncz+tLt+ Gs0C6JlXOrG9RAQQ2gtQVKk1NiOEmRxTomJVjUSt69Dr9ZIk2dy8qZClpW6oev/g6//9Uvq4xTLQ NVhicAwAYCyAQK1WMLO4fE7WowKFBlAbai0Ar1AgA9KqhnNA68HpA5sB14Gdv/jR/yF2A9wXjBRB hTV2IB1DPYBBHlSBq9YHRKI083502vP75taZP1v6YiYDel88bI9mSTrJO9FJEE4PGkmTv2K+s8lf ePz3v/DUNy2d0LDUdaeARCKcQQhgik06Yl2JITb3V07LsSdrG+yhOsqITTAwijxKImLYAASFV1wB blyrX/nrv/2/O0uV8gDkVSPUqKQaFiAdRhdgUAUuwAWoAnkAOiOkDyQPoHWv7v7JUDfxs96SrPts ICbJJ+dPHokCKAKhvVC59d2qhbputrK5MUJc+KNv/4szC1+okGdYB3qNShA9RGAsmgRalVuqJMcV x5ysQKwbZXSkKK0BQIrUB8smFcCHwrkxcOnFD77z8mt/lXVL6xTkWxtILTSFdCAZNAUAqsEVqAD5 CVnTvWTCJCGrCQRMIwICSHvD2eg83VqgTpZ5JRR7UAtqkhxi++1cgSYGoiaQHJJBc6gVCd7Hhd7y zmZx9swz337unzucIpxQWTYwNI3lMUAhxsqY/L6RrseerBKUGeB6WpZCwF6VyEatDFU3ijd/9sKf 94u3FlbKotpkygAAYZIPZaAGsCoNw2Qi1WJDaNVk4mnf87WAgqQ9s82nUcBAUsBC+UCk4JZpMUwy MxgotnoIleAKUwVUupAckgNUFOPTZ07dvHmdyNSFpPaBP/zmf7OWPmvxMGOR4sQfwFAURLgn5Y/u EY49WQGBNq5NBRCkVIpMUqPvUL23+Zu/+8V/iLiRL9ZB+s65UGdQS+yJA7giDkAg1nZli5qZeCkO pIHsE1FxL18FylC3v3zGRwg28qASADSDpNC0LbZB9UR1jiCZ6gCAzdLuzZs3T59Zq+rxaDCm2EG1 9uUv/ukzp/+E8YCExRjgLMhMwxP3T3rrcR9zAkQQILbJYDFsgLFg26H/Ny/+2dWbv1tepyr6suon eUpNpgtNVo+09UuCIoIVym0ZIvAuRykCU6NH9hr+gFJbyoUYKnsb9nFQBgFUgRTCIAedflECKFRB NdS0aisslDd3tk+ffXB764qiIlYQra6aX774H4c71ROf+/Za+hjbXjWOWZZPXCJ83zgEjj1Z62KQ JFmINnhkORQMyFZ5+cXX/3JYvV3pO1vDsLK2otYWI7+w0AlmCIyJ2tXbKgxKJ6mgbdLJXn20YQ+1 k3uz3EUn4SuaLjGY2k8flrU9jXhNQVADTaEKTSYjpxl+AVRPArm2VaklB3R5KV67fiXLTaiUoWnK G5sXV9fPvPbm90XrLz7uF92jNsmrilKTwc5dV58BZk1pnjnCh8JZB9iy8mlKguHm+K1f/eb/uzn8 jdjrxo2Uq7JWQmJ5CYCzobWEWjNkQkqarm8hgIXAOrX02w9v4VjdtfRnrK5bKwC3ImuroQo02eNG oLCbY6AOkkNzSAqSSEO2Pso4sUQcow+GU/HWSLcqspMrTzz/1B+eWng+6BKFJWva75kcD6wo3P+S D2QGHyUcPbIebA4JIIoAiO6mWVlMXrwCw2IrzQuHnQ15+29/+GdjfznreuUCFIUE6qAWMKxQ8dZa FRs8mI1zThDKamBSAdUAVAnqRA2JA2BN3DtI9hFutpFTfLKgvDIoEHyr7AJKU2UDw2E/TXMyTpWt yRLXras4GIwWu8tA2HWuUUCTMitEyEYDWV9+8mvP/8v19Pk6PpBxz0VIk+3KqH0/SXiyJjHbW2xQ FB4QOsL1XI9es6ZBqd3aKLy3/EQrxmRyysbOoJMbxnCID37x0l+43pbN+mqGIC+ESey+uYnWdR1q T6TWwYdyNO5HqRaXeqqqSk0kSQlEBkxgs5vpNwXJLX724MAlt0R7lZkkpjS2Wg0KoNDr9bIsy/M8 z3OR0B9s+DhYXskPemqhrCRkA+x4eZ2G/sJPXviLy+PXnCkiYTjCzLqb9trdoht7CtB8/GKezxZH j6w088uuvtWIUku71YBbRI3LS1ThpmL8dy98fzTe2d7ezPN8z6w9IwuXl5eNJZFxkviF5Zh1S8Gw 9iNWw5I3TiKShKHENXF561zVu4ZpkY4JZSdNzbIMQF2Wsa7YIEnZOohW4BF4DC7bIkiN/0HSLF2u yhhCsE62di698toPN+rXGRs28807E/HOpYAVtczZnpfcpmkzfZIx9tnhSLbsFjYBEyzBol34MdWr pI7XCduKrf/08383LjeqeugSDiFACWomJNjNchKRGH2IVZTCGHWOVMJgMGhJoynUETFIQJ7If7qS RhlqWs/UJGMcylA7GlVVKVUp41FQT4nrOHa+KtoYG5VNzAKw0ASa+oqd7YzHY5BfP5Vdu/naz1/4 izHeSdMB2Nf1MMaayKpw8ERkbqFuHW2m4kjqrHKLVzah72xbBVAUwJUK118//8sXX/nPvWVlW4AL 0aoJ48uuGG6MdvFVmTjDRmOMqtHYBDASLchOGBOFwzSCxfJp+ilbvyxai4oi2jVkREihhilBs2JW fJrYvOdG481JFiK3rlnJAVNV5fJKXtZbVVX0umvRZ3WRrXWf+gdf/tcL9iEgFRhGHqORSG4mXXGv 4YWjbGAdzZF0QJjpLcr7KaJiBGz96rf/4YWXv3f23NJwfM24oAjMPCO0pia8AJJlGVNSl3Y8sL5Y NPEBiuu+zI12CZYIxO03qTQZ1p/qK6IZecZQaicESbNkuSrseMgGK47X6nE63GFfNAGL2TwvbmaP XndpNCqNMS6hncFVlxULy/HN8z/99Wt/PYgfAEOGD9EzkbOQOJtaOesiOLpMxdFtHMl+o3vK1DZp NQABGLy7+Ys33vpxZ8H0RxdOnlq4eu3SqVMnd3YG1iVQi9a+3s2GNpT4GlQvn+idXFl9OEsXimK4 Y6/VYZNoKFwqalZVIZEMAFg/ZbV1itlUmHS4QyQrnWRpuftAlmVri+P+YKsYbyApQU2ymUxcvwCQ JEl/WAmqLLchVlW944z2lvT8pRd7vcXnHvuWBbHJAKig9kgzgEAf48w6WjiCZJ042Hdzjg4iTmo7 Dv/mB/929UEKcRxV+sNq/eTS9vam6iR4owRqVlhHkEBsVZiOPXnqwWcfPfvltfwxwAkKQf87P/4/ YQJR0apGytp6PW+nWuUhIa27g7QtJyO5r9IvPPX7jz3yxQwLFgkDg7j5/pXXfvvuDxQAV9A2iRGq gGxu3VxaWiiqcjAYLi0vxIDhaLB24vTgxva77/8qTbKnz34b6BI6IOwtanhsKgscQZ0VwNS7vltf pCyQZQgKYwIw9tj2GPz77/6vtvuOuJuNY19psihKE1UHmFYkNuog1Sz56Hrn68//ky8+8o+AVWAR SEodJDQUXL4eXv5/v/O/L6+aqLHT6fqa6rpOUuzGC+7+wzIhqX1pXWSjdVk42zO0NO4n3/jKP1tb evxE8giQAxYQQlBsv3Txu6+++UPwYHk19WFcVV7FJi4LsQZ5ULGbUCZdUsdqU169dkn+23/1Pyzy k4TVZg3FJC4XZjJfmjDHp/Wsd46jJ/n36aaT9XdJAgWIAHjFkDF85bUfZt26dY8jgMLkOIvpAwqg UNdJTz+4/hxwAlgFuoBLaBVYZaz07ENPfv6rMSTGJCF4he907adegoeEWZtUL2NJRKDcyVdOrz++ lJwFVoEThDXFimINWH3yoW8s9c7UlSkLiVFF6hALH8Z7ZvPWs+EUrFz1iysnz/R++vO/BobjeAPw PkyHHx9peu7F0SPrHkzqpBLYIAQVFIIRYfT+tZfPX/wV2Z2JB+cT3s+urz621n2c0KNmkVazaxYy YNHh5OfOfSXWHcd58JXq0LmD7L/LEBJ2DAixWssiAUIrSycWsOqwSOgRHCtTSBAzoJdgdXXlTJYs 1LWvqoKNGqNRqt1MhpapCdQBVPsi7aKKG1c23nr7xq9TU3tsGVvP6PEzOT1HG0eviW34ahp4jJMV JnCJEntCIdh5+dX/bLN+5a+3dsZ0MfT+JxKQzsaZlhZXCKYKVRQFUFUQgfexiELIEJslUBRCTex9 GH3aEZ2mOjYRAWIMKaKqdjsLgA2AD0YFUDCBFQYMUJrkS0tLRFTXpTGU5c5MC2dMcxgm8jKi6nTN cHw97fpXXvthwE2vG4RCdst/zOQ53CNT8jZxxMg6WwGgRWN8NOUqokEglG988MtRdckk22RHACDp RJbYXZZTkx+te9hGoahvAn1jK3BBgAqYQUSZcQns9RtXE0d1XUSpreW6Lj/9R2bASJtropOUqwCI AVhFPDS2oV/ABxQ+jASVdWosolQiYszUQ8eThWLapHLneToq+gsrLlLfY/PXb34/Jw+M26pYs0qX fkTK2JHAESPrfswmA4iiAqodf/XFl3+8/kA+KC5knQhlaIo2n9/sfaI9lwMCqm5uvDWK71sUBqEs Y+MeT6w1iITxxtaFJNUoBZFam3z63hJSNRKhQkKI0RMrkY5GA8Az4JyCEKQJinqgIJQ7g+vbO9dA PknhfV0UhSq1j9+G66RNMiRvEirD2LqY5gE8ePeD31yrzkcMgbpl5e4KYb0nro/bxxEna4OGcJEg Av/Gb18Zjm+AR2TGihKgxpiAur2ZAJN1UTQjLagq/Pl3PvhxwDVGYZ2xBqQgxIjh7678cjC+YLNh mkqaJDFYQ51Pna9qQkDjlgkhMINYtnc23r7yu0G9CXjmwFyBKmAwDtfevvrydv8yqCKuQdE6Zubg m/Vkk/RV0knyoY/irTXDou8S8XEHPHrplZ/UGNyKl3PJeihM8yoUMzF9UUhQVfibxZtvvPvDlZPu 8s2LK6snRmUlBCVBKx32GQoTZaAFg9Rk5evv/N1bV34quGTMJeXtQNc93nvn+k9//er3y/oGOOSd NElTXyuRw6eOprg7s9gQwWyVwri88dJrf3vh2gsF3iH7AbuLivMV3rk5+u0LL/3NuNxYWMyI1Ncx z7q93mJTO2P/jUkBUaEQorV2a3uz28tFx+cv/qrABcUAaIPSE/3WHPH9CI6an3WS/zuN5qASeIDG teRJ/y9/9j9tj1/pLeaKWFVl7UOWLgJEaIpMz3TYTImeyZ0BYLG3tLU5HA1keemBs2eeWFpcHRej re1rm1tXGi+YciQVbcqqfdqYFhmguGuea0LqGLlKkqULaysnlpYWvK8vX7l4+eoHi8uJcpO3ENrc cJ0W26LJMsbdJbVCChJWQFMKy4CQ2URc/q//4H9mPOpwArCAFxFIasyRdmQdtQiWTLazstBG02Q0 DtLEbtZXPa6brM+JKcYxqLVJhl2xuhe3yDEFgP5woBzSXizl4ruXr9AVijGGEPI8n546SYL+9LGn kXb6oVJVx3GIYdAPG0NOriXGmBhj0gtqDuz0fotb7Z1e1EDRpklwAA8BXB289dDCmailoY5oBdhm FwPg6PL1qMn8GfdT+8qkWQnNqN49/xvvvbMZwQUfASTJoQebiKRpurCwkOe5qtZ1DWCWqUcERJSm aa/XS9M0xljXNTP3er3bvV/zSpvV6gbg986/CXjRZrl5q0UcrVn2AI4aWTHZgxSTypVoRI7H1sXL vwUJIY0BAFv3CXaZOoCGoGVZxhgb1na73SRJ7uYT3A1475k5z/Nut5tlGTOLiPeHiYC0aAjYLHMN oKYSh71y9Xw/XnPMgBgmw00Vhbv7EHcZR42s+yRrnErW69tvDcYXmSFCdS3GOGaOcujOs9aqarMP YLOralVVw+Hwbj/IncI5JyJFUYzH47quP9F+Wh+BRgdoNGN1UFNU2+9feB3wgtik/t7W/rL3FEeN rJiN5iu8IipIUL9/8RWYbSIQXAzacE4kHNbVQkRJkuR5niRJ4y1S1YP7V33mcM41mxYR0XTXwtuY SWbqX3Nbj0MtwNb5y1ffAuqqGu3qAHR0FVYcRbLqNGdNAFWIaBBUl66+5rJCNBhOmI0K3V54qaqq mdrToqpEdATJWlVVjJGIjDFEpKrN3lq3ebt2TWJTE8kAnHcxKq5d2z5vnQISNZoj9w724+iRdRdR mx8NivHO8KJN6hi9tRkzN6rnbUiaLMuMMQ1NrbXOOSK6LV3w00WzX6ExplFaYozW2k6nc8jbzJKb 2oJcygCSVJWG12+ed031Qe+PuMKKI0jWqoJqu1aYwUFqy/6XL/1gZS1VlMaYsixVFSTd7sJtOImb PSyb3JGpFniYLdbvHWKM3vsm9N+oPVVV3e7N9lfs8nHMtn75Nz+JGEaNWdJR1aOsA+AIktU5EE3Z Y4g0ot8fXgYXbUUdYE9Q6ug9wlHC7MvZu9qSPLggM65kGwBgVY+6hXXkenqmIoMBrCVbxGtbg/ea ciltFlVbDJX3VEKd45bQaYGPBtSkuahGUM1u3B9eaz9vqmwcYRw5smLXNc2AY9CovFLUVyb7BMmk iGlsszaPQ9bwEcBkeKMJ7UbVCIpsi62di5N1rbqb7X4kceR6OkaEoJPSfAzIYHyJzACYrscKk/RW mkvWT4Am92BmNSwFkFdEVc+23Ni82CRhADJ5sUcUR46sovvKMMl2/0LWbax1MyNZw2SCO9pGwZHA JKO3XUcQQUFVQUqm3Ny+AkzVhKPLVBxBsjLDJQSgCahExI2tC0k2WZbd1N6fJm3onKmfDG0V+Sbo KoA0+QBs4mC4CWXVJkPgSCcHHHYanWZFmQNZP9MTJtDZmsv7snonVvyu3t+cwIZNu/uJgoE6lv3R Bnc9POluKagmeOjbVfNztfXDsJvOywApmFSUeLJzpqipi7CpPFBdVkBhaP9SC9xK3B48B3s8M7cg xl3AYcnqFX1ACF2gs7upPaZ503urmSqDoBBq1/1NtxRz7bXTnDRqNvdeNhEAACAASURBVLC0oqkC IJDDqFKk4iWEUT/Pe82KTUVKmgHBmCHAkLwtFzXHQRCRqaBWYxdw4EggUAJQknmJVVSfLvR2/DuL rgt0CemkngCmCzRmlgZNN9qc8rJRc3W3Wt4sJfbizreUvw3J+rEODpmUbZpUMSfeO0ZNq9FPI6vt LxHgRlAqQBBjY42KGZ1OJ4SgIIhtVwSQAjUgiBZKNHOn+XH3yDVQSjukCVQpQmO2hlgpRGLwdVGE 7Z4rGIsfqQTsZWqr/tJu7oHSp61VHpasltAFpN0DZDpMaBrNp8n2IIzpB4CSRVv+E/uX9TWqVLvc b7rD6ggIxnBZbFXFiDMwOcA2ZdOAZgA4kIIVCKRtoaD5cc+Rg9qKlYESGkGeIM1+MmmyoEp1pSFk vlDOrSLW3uRuNuw67a/Jn7pvoudbUIhu/eedqwOHJasBOpP15rNJOjP1vXSijGr772SuZ8C1q1b2 DeHGUUUJIMFX1kEwBoJDBg2JyXPni8ILiLVuZhNFJImgABWAmiJR8+P+o3qNomCSAAWoVICEATMc eMcuelax0UcGCGKdToTH3mptOttTH/LLdDnXQeulvdWd4rBkZQhamUoA/IxKMLO971QTVQCQyQPw tMVNubR9Y00dmrRKF4HIiIJq6+bGcKcow3B5aVVZCJVyDYpCgVt1SgH+7GXYET2SoKtISLtQBgsA JgdNEmcSm4o1VjoSKsXIAFVEZlbbjm47ZeY4C7rV57sTbNxreE1ViDvCIcmqM0RsldepcwC7migm +0Px7PgSQeRWKhvQvgml/SWxhkAGBpAY2eji+tKTgTZGGyIUwGNQDZKZ8fyRitbfd5BqInCQLigw OVCApKSuGPs8yzpZ5rBaF1kQIlZnGlP1I5nazmwg7BkYM0zdXa54d7XYQ65u1Zn5gQQogKgA4NDs 8jGhsgAML+0WKzpdk95KWDhGAjhg70I3RQwAw7gNQIBloB7Uv/Oxn6frCp4WfRZYSAowH+2gy2cL IbSVFTUFVUR9wAOOYaDWkGFoUSI1D6VuufalqqZJF9hD0L2+7FZqCoQhAjDsDCVnqUkAZhxhd4G1 hyfrVLJSACqgSSxLALc76SMAY6BQVJPH2/1GahWGjJECKeBIZ+7cjFHTB0TDMhmANiNq0hWoU64m Wq8TYQDctoQn43h+3D0KAExNUiFsAhUjAUwUdWwIAiTQ3syEuY8g0LYHG89jLa3uFwHRXenT9GnC cJPdYk3TOXcRh1QDaFYNUIAVqnBQ14y/2oOTymAE9IF+jUFE6VFUwYcghl2WdBewRMiAVJBXwpBO ahaZOEaIR9L6TB3Eq0AV7BKDZh9AKNKWrGjnHW6XauluUHF+3D0a7Nq4TMgAbsgqrQ9LGykTw26F 4RjQqAM+VMTBGB3XW1nCQAVUAeMaoyqOfCi9VL08S5GnWARyYEHQAboCtnCjUZ0libWIETFKkkyM 8ntE1t0va+wqJhiFATAea94hlwSgqHBVsP3b93926drv+oONEGrvowQwJWnSzdKF1HYePffUE+ee T3kNbEq/1XFrxiL4yVcIfFRu5WyfUAOi1LyvALCQBTWbQlVHPLHtMwVrI+coBSpgG6gEKcMQNw4D AXJRy8Y04ng8lk6XQ0CI4ywjoCp1q5PIGBsbg0sXL79z+cp7O/2bAWWSmCTlnf5m4rLVldPnTj/z yENfWjJnCWCwD9Lt5tRMtgKeSf28bRy2IotAJ5snUKNRN156BAWRD9hiDN7feuFnL3wXZrsO23mH owYR0sBMqeHU2tRSPhz406cee/yR508tPWFxIiJnXbTgnQ3kXRg3NFYJXWAY8Tpj4MECAcZNLEAB gIGU0G1KOc9xK3hFIQDQBQKjDwQgJSQOCcAeVR2zhB5NeV1BvtLE5DGCTWRbA2NgIBhs1R/86Gff izSIMq5lFKUMWqlGRcg7DLCETOtenjx4av2px8999WT3McYCkBOcRJCCphGDO5Cshyariqd2A2mj YCJSQBAUVY1NQf8HP//zC1deWjtpdoYXkzwSe5ASEqghtQQLtQRHagY7YWXh9HNf+IPH1r8GLBMW gEVuKl1zUcu4GMZ3LvzitXf/r1F4P8+WlISoUgqACEdGgKSQJUj62ceKjuaRajFDZaGwAAA8AglL CrXeRwYz2W529plH//Txx76ZoAukpNbX4tIIDIC+YPtK/81fvPT9UXWFTAEb2AkbJVIihZG6GnS7 XUOLO1t++4ZYOvHomecffujZJ05/ldH1gaFpYjsAJID3VXk8JA6tBhA1FmaTSkKqquQVRaHXx9Xl H/38Lwflxe5SUYTRqTNLH1x+d2Exo/YaYoVqVA2iReqy5dSOB5d//uJ3Nz+3+fzn/2GC6LU0suKs A6Jhs7jYWXtgubNBCScxVALLmghlUFKO1FRnxxAYs0II8+OBY1BTKCwFD7VgAhGJQmPaI0SNofZx EOEJideExVqGSxrlqgCGb1/+9Yuv/qCM15dP2CB1GYZlXYoIGTbGkaW6GgfxzkaTZCsnndTF5uC3 269fyXN9YOWx3J5QMOChjmcN6HtCVgYsdKK5C5SjohDsKG384Cf/rl+e7/RCZxFF5d989/VHP/dw v79NZAhCEChUVRFV46joLy6sJrlevXS9fL221j79yDcyOk1tUTbyqpa0DmVRb5nuEGRZHSQncLM2 CyyzNdppfjx4pAj2pARIwxKCgCPgQQEMMtByYJLIiEpMBlBoLGDHhOL89Tde/M2PdoYXHjjbGYyv qKnZauaYTKJCUY2qLq+erOvalxVRSJOuyWysdmJZvvDy97725X90bskS0KYuGUQPcwe1bw5vYO2N Dot6UCno/93Pv7O46ovNgXAxLOo61g8/fHY4GDMlgFExChIoERiRODqHcXmDTX7q7IIfhfMfvNrr Lj++vqIQUYBc7WuTOCF4LZ0tYmBFAmJVASyoghkDAdr6d5UwP+4/QqCNYtX4kgy3NWsrL0PrlMB1 RZ62BKMyIqUFw1TVw9SGzdHl37z2i8Ho+omTXVCR5RQgUSVEr1GIc2Mck93aGLjEuCSzDEgVpAZb m+XbmzvvX1xd6S0tmgTIVDNqar/dAW7XG6BQQBXgOuKK4Or17TeD3ky6gVlsYhNji6IgYmOcCimx qhIMsRiybIw1cWtryKQry4uGw2Dn4oUrL6ysnDhh1wiOYZ3NCJQYjlJEKV3SUTXQZoWWgBRsAJps zz7HrUAGBKgDGYEFORCYPIh9zc6xMaQ1ksQyxBm24LIaZR0bcfW1t/62jFeW15NAw8oXXitjyLg0 MQZqg3DwWke/sLBMBEXl68p7D1HnXJrQ4lp+6dpvOpn90mMdi0URMXfsDzh0iqBSbLamJoIBiArG B//mr/6XtLOQwCkD0OA9vBBZKGtQKFHrPY6IGolijEUMSbpUFlV/uNPJF2tsXbyxfeLG6vqDTxhK o5qMrSD6epxYVcTgSaHQAISmerBEAxiGAPWdvob7FkIUoICMtHlLFAIXIHF2uS5qMqUEVw2ZTnYz dABO027Ezg3/0usXvnPi1JqPdVn5JOmQQEgkwAdhBIAZjplj7QEFeQIndhFgkK9jUB2ZrHzj/f/0 2GOPdXE2sQ9EDzMpzX17ODTbaSYipQRF2MBbnGyAR6CAdsbhSfrVvlLUU8+DZXKJy7Oso6q1HyZp 5GR8c/v9iD7BkzbkFmJlUgMCmHa3cGnWDJrWzpvjQyGk3Ox5SVO3T7uQvUljt1BL6gA32b+dAXn3 wsvpQqmmL7Y0iSkrr3AKq5oqkuYcmtbEIAEpwIJE1AlYCGAfMeZseHX7LQcWxZ2XJ7rNnm4WSDWP /8GF9/e6fD9RpL6pjZOmaVO9J01Ta+21a9fKUALNeiAQqCkQdFdcynN8EigUwFtv/S7vNMFCGGM+ srzSh7o+VaMx5vz58wBCs03codykB3A7JBCVhqaN+njx4kVjaTK8PmlziCiEAKApitZUyRsMBkVR KHRaxKr55Xaq581xWxCRQot+v98UFBMJMUZjzAEZ9CHMaWJWEJA2NcWuXbum0EbcxHhHKUe3Q1ZV bchDBIFsbW01H9/q5h9KMlUty9J73xRymu5dVhQFAKI29aypSHUbjZzjtiCAbGzc6HSyEGrR0BTd TtMPiREqHbh8F8aYEEJRFEUsjGm2fbjnZAXapAciRPgovnlI4BBb1DW1UZuqjs0gVlXnXFmWAIho Wt5xTtZ7CSIajYbdXt5UsAM0Ru+Sqc/plv0rH/ZnMyU2tfCbenh30rZDXywKmtkfIiI6Z0TipJXT n4+7j0iSJM3gE5GmCDUze+8JRDNx4KY85WHbOcftgYmMpRiDtdwonc1svuek/QK1wZ5zmDnEOs0c tyF5EN9OWf099zzsBft4IxKSxCriYXf+VNXGqGo2S5mW9o0HqoU3Qvew7ZzjtpGmaVmW1rGqGmOs Y+/9RBmdBc98KHt/UWZ477MsA2CtjY04u8dkNWyZLCYOgYTduBhmWbKbVLr7AB/VsmavnBACM1tr m7GbZRm1i//aGaSpqXv7FZ/nODSkqgprOcbAjNqXn7R4Le1RSRsPT1kWzNzMmXe+kfGdu4Qmqb5t HG/v+NOPsrHmOHrYa3vcQnBO0C4ypkkpnRnJup+Un1Qz/FjcFf/lPo7enZbN8RlB9vJPZvw8H9et +wXnXabBHZJ19pH2buk7xzFGk1y/rzc/vGf3q7Myc9z3+WeuBtAMX9tf5ji+0P3T+seQTA78Mvtf d5MMt0HWW14yS9k57g8chmofoQDQAUvmdnGXdNYWcwfTfYFZet2Z/T6Dz8bAOhgjbkoGNYY/3+0B gMkN+UCC1XxsfDo4TCIb6aRiJJh10lN7OXC3+H4baVuNo2qmWWoBC1io3VvdUttiv4fCPr1eZ1MN 971EAfjuDf05GhAwU79SGdSIoQ95z2oaJ5aCoMyA6DTVUAGdkWJ3KlxuT7Lu+1aajC3sPuRtoo1/ 7P94Gt+b/nKX1KA5PgQ8c/yo06jtCiLddwk3lcrbxOS716Y55jgGmJN1jmODOVnnODaYk3WOY4M5 Wec4NpiTdY5jgzlZ5zg2mJN1jmODOVnnODaYk3WOY4M5Wec4NpiTdY5jgzlZ5zg2mJN1jmODOVnn ODaYk3WOY4M5Wec4NpiTdY5jgzlZ5zg2mJN1jmODOVnnODaYk3WOY4M5Wec4NpiTdY5jgzlZ5zg2 mJN1jmODOVnnODaYk3WOY4M5Wec4NpiTdY49kL1bsjX8IJ2pLqxtYcB7X8bxjrfVnuP+QrujwExl 0ZavgMzQszmBAei92ztqLlnn+BhMKrB+9lz5zBswxxyfFHOyznFsMCfrHMcGc7LOcWwwJ+scxwZz ss5xbHDkyMrMAlEoEQEIIYQQPutG/T1CQLDWAqjrWlWZWUT0sJuZNf0oIiLMzMyiInqn+wsdObKq qs4ERxrKNsc57g2O7Ns+cmRtsI+vR/b13X8g7EqHo/bajyhZCTR9X3Oy3kvQ7is/cu/8yJGViOje RZvn2I+pmGj/PEqUPYpkZTBhl7KqKjLfTfge4aBkvQ3r6lPCkSMrM89KVp3gM2zS30McTZ31NlIE J/ymSFAGIy4gTjboptjurK4WSKEk5NsPSVilTeBRAsxkq/Bm2/YICCkzOcABFiAAiqiIupuzNmmA Hq33eB+BCQniAuICrAICqlUdqQEIsICAAPIgL2pZUoAVTScGAIwAAEokOdRyXIRaVgAJgDtR8Q4t WWPr9RRjBCjrGL/wxB/3N5bKsXGJAVVlNWC21i2K74U6V6QKUg7KlZihmIFwIeyJaDQsgzfO9hBt qGMMvqqqRx9+RpGLNHyFc9Y5NoZA0m5br2am2XP14O6Cy1CfWXmiGq1o/WCoXVUVxCWbCiBoCk2h DgCogr0Bd91TWSsFRYREHoGHIE8KX0CLRVs9cnbt94x2LDsGytEd5WwfmqyGLZQACd4D6JjF1d4j KT/QcSsxKCikmQmhHo2HqrHXW4RaQQJNoFZhdCIyASwvLwMYDofM1tnMcLa2eoqQQt30kVQjSFTj 3gYfOe3lvkFmMw889OAXfJkb7iVJRgyXNGsDGOqgyYSyBGWCUXIgp9TkZ0doVMViZ1UliWX2wPrn nGHAQ5Dld9S2w/Y6gwzAECNCUQG49RNnlhbXDWd1HUWEjZIpE1e4rKj8TQAsKaSDuEhhlcIy4gI0 JTJJaoAS6tM0VXGM7sMPPQ2YI6Yp/f0CgWOIzzz9xRhMqJDanjVOVQEFCStYHeIC4ir8gwjrpD0D y5qRpCwptBVMzVVJyg+dXbOmBPq1DmDurRoAAqICZE0WAxPSpfTUmQc/Px6q1taZzFqG1japk2Rc 1jeJKlCYDMoUkkEd1AIyHveJYrebE2xdmk56+sypJ5vZf5avcwPr3oIy2z3dO7e89EBdmuANqa3r mqhu9FQgsjIkR1yELJCa9jIYqG16mSQdDmomd+rUqeV00UADhsYFoLoTze125lMfIwjMBMmAnNA9 e/rpbr7O1NWYQE2Uqiy3o2x1OjW4TzQkKog8QxhggCEqlfejxBkm2tksM7t+7vSXV/AoaXbbDzPH HYMBy8iB/JnHv7bUeXA00GIciAjkicbEQ/AIXDKE1UINyBMVjJoRmYjVsmak2XAQF3onPvfI04wM 4BDFgJr1XXfSuENBABC30VAiDsEBC6vpw1997o+WFx4ebMbxQBLTNcbGGJyLzDswfZgheAQqQSXI E4KIJK7jbLcYcqy7Z08/97nT3wBWqbEZJ5i7ru4lCGCAkNRqH3/wy58795WMT/hx4rhDKuACPCDu EzW9WTFVhDGhAFUgITAhJc0Yi8sLD5099czJ/PGIXJFDciCVPcbxoXEbrqtonYFCBUwwzIoOYens yvPVo6OyLHZG7yUmpGkWpQyhhhkzhpAU6ohsY8uTsgpb2w3jLMHSo+e+9OQjv9/FOcKiqgNhrrZ+ hpBgLPeY8OhDX4lSv/P+z6S6ya4WVKAKLFADJE1XqlYAAEvISBPSxGiPdPmZp75xav0JYI3QFfQs ZxBqeXq7nXsbZBUAoraqJHWNy5OD5sK9z6//niH+xUvf27l5sbeYpnkXpvRRlUuCABGtU5WhTmMm xeK47x48+eTzX/jHXZyuJc24I3MH6meKqhJr2XJPQUt87plHkp2t7fOXXugtM4PBhcADSggAFAKB ghkJISXtkC6QLlNceeLB3wMWveaOlmN0hlCOkeV3ZGAdlqytzsEsec7Q1m1mOS/rHifJYye+2fn9 tTff+dWlK2+Oy5HLa5NnQEUIgKiqCFNMxHc2rvpHzpz70tf+4OFTzzmcYHSsmqrSLLUARECsEVFV icgYMw+43htkaSP+rKITQQ7m21/+19/88h//2//4v1GSsR0KRlFqIkpcbpLU1xHs1NuqNIzOqZOf e+qxr59ZehpYBBYcdQBrCFCkGfSOuHq7krUNU818liVLihrgB7vPrj939vLD77779mvvX35bRyMx BXFNHIijgYHkpAt/8g//ZHnh0bXe4w7LQKqwTGTTO3iUOe4Omv5lUsfqIhxxatD9V3/6P17Z/N35 C69cu/lerMfWQTWVYBEw6FcS+NSpzz3zxFfOnfyCxVKlLqUFIAfsbhSA7oyqdxBu3S3E0RaWEagm RWXZdPN04eHltQe/9vSXykHhQ1EOBqOrVd1n6xd73aXFB7rZeo4HDNaAHqkVgQisu6MnmeNuQAAP KCQlEAQGuUquvJDz+qOr586sfm1Ubw5H2+NiUNdljGpNsri4sra0npklg0yRELKcMiABDDDhaEOS e0tWnlwyperM/xG6+ZIoQizYJAl6Ljvdy5wuCK9XQEWtm80Cee0ZZsFSa6sBEBFmzKNTnylkkuMh UDMVharpeEhpJ095JU0eXk18vVIS1MAIxCIBGDCAJRiFAez+fqSpGnfvvAG858v2DpQmTYUJzDkU oCBR6wpkjEu6TIGhguB9jAF52uPJgDMGqlBRUWEzJ+tnCFYhImqtkYlQJEK3k6iiLp1S6hwnLIoY ok9MEiV67wkmSbJbJWrJ7hiYfMvtNe7wasCsCoLQPkpDYkIMAGDau1rD6HQggAiqmhFhrUsdYCc8 b0cuiEDUxHLn+OygTEigAAQ8kYWNx0lBhDQBwEoAOAaWCLA1ZE2SqsLXAqhN+FaeR8Kd2leHJWsT DdCpH1SB0BhbKoYoMQ7NoBQPURGuXBqBYDm3adr8l0aoAgRFDQ1EZMiALXQuU48AlKAAG8CDaiAC ChhRZs4AjlF9XTHDJdZaAkRFqjowc5K2AZ26Di6ZUotlIkrvsINvq+TlrYZHXVdEkeCIDIHYwjKD naJiiCDEAEjqHJinhmGj6Eh7R93jY1AC4EFeW90jKHmo1SZLsEmpbM/72JfA+90XdwWffHTR3Xa8 KX+ye7IiAlCO0BpoEo4DAyBPqmiyTwA0ScNNz84e214BMwFewcYYYxJAImKoPREnNs2yBIBIEBFr kySx+2b9u/L2D0lWmtj+7ZPsZtGkWbq/PYrG6AJgQMba9sNdFwbPPAhPP9fmi0AGJdvKmlxiH6aA CmKbUimmAA9AHjHf/xS3DivctoIv+6/a5ei+L5q9814mTS/Zw7ADd/4k0Em91P+/vWv9keM47r+q 7p7H7r2POvNNkZYoWhZlWbQd27INI8oL8IcECOC/01+CfDJiwwiCwIESw7Etx4LjJKZepMi72+fM dFflQ8/szt4dyVs+4N3T/jAY7h53enp6fl1dXd1VdWJXOcbgQKwkhLjO5EEhbo4mGgVPaXYu8Ja1 PJbDjDsMkJloegZIMV39JoAnUVkBGLBJXPsRmJl5+us2+FktAcDTSNaZe/Lj2ppO+sHRyzH9wYSp ClUQJKCy1hZjyRMHlKCgJFAWWGgFIDogPHY/Lx/78CJwvPBJJ3wRixmnfe9CUCIhZgVmvC2gUhib hlK9F2ayTFP39xlR8ijM157PZVly4SJfE9DsWmGFS9z6eEjZWkqqtSdM7KXqIBmIoXGRur7kcUVH UTT3iHyszEkJU9l2Ypk6Ywk6TcmnRat3nlxy648amRq3zCvIR2U0hMAm+GpQVkmaEYMZTgX0Qjv1 s2HRyCpAEAiQAmC4xK4z1iECDdEnSyGsRmChKUBQ++hx+SScVts7BZ67Jnr6m576KQhQxG2mDgpQ AI1IIToU9cS+8sPNrQ2BWDjvwe45icEXgAUka6kQQykAhXW0tb15SSGqHhTi/ABqGZDoDKTzWrvC k3/y5Eo+NZ6L4BLQ6ashAEgMNGE1QCAWsAdI1GeJyRK347aq6Me52BswFk3oa+3mGmdykjp0r136 sqENlhTKgCdU4DGobJkReHrg8ZP05/s2ZHrUHryt8/R4vpDW+QlgbS4hbS4hKEMt1LIkrPbChcsM x5QAi74zc9HICtR2AUgAIWWsv3z1dcsb0OjIG8CjuImbqWLUTt7TA835hCNER6L5ajPpA0cxsZlr TYUj58nxKMo+suQnQh7dGXj2QL2dj0pwAYq7pD0pWJzldV/mN16+DeQOnVDBLfaazKKpAQA4LvdJ NCVzvte5ZnQdkjMPhColTwhKDEjjlt1+YVoP9CeQ8qlMRYuFx/e0iY26ZSmr26EAAphJ41oqa8ic 3R2M7MXN1xUdgitL2GfzPn3RWLQ3RwARWQDWgAmEhND5wXd+OOzLeKgArCOlsUhfdeR931g1ho1h NspG2YA4EIckYWvBLICPnm7EcaPMnJJ1+r6PoLV6ERcmNFoimchQ/DD5SgZACCHPc2MMETnnKl/w /JLMOWeMQe3wQ8zWuTTLOkSG0BzEzWEMjPixytDaAXGv8J+VVZ/JjQY2jDe/8eYPMlxibKraTmcm 09UCYgElq63nTNHmo6yUMzo3b7y9P/zg/sMPTJCt7c3BaDAej7e3zx0elrP8q1W6fn/Ehowxxpj4 ZkWCKjE9+05EBo5H36qXfZyz02+zV1VVGA6HZVkaY6y11lpjzJxhvNh7rxpEIKKq3nsh8lBO07TZ pNFAGeSDVJ18TVGW1RiqnU5Hq7wcEoetG1e/8erFbwI7XjKGA0G0tvsvJmjBfPEECFADaRqdodQH PhV8/M/v/+gP//fvavuCUZqxTcz+w8NOd2fWgFqfjTGqKhpEJC4DqgZVyrONOceTNplOXMdCm5uz 5JuY2WV9bXNcDInIe0+kxpjhcKiqaTrf0CsiREpk4v4mFWr8KduTy6kBWFEmKVSL8bgPoSzddLrt i629zTfufOVvNszLhI2qIGZrLEMXb6xtYfHIqjFUFk+363KlOATuD3H3vfd//Pv/+Y+1Lce26A8P sjz1oW10nBrhVRUQIiJSZo62biIqxv5ZyaoMwFp35C8RZelbc69p/1EVVWUDVWUGM0ePHZ3f54yZ mSwAVQ1BvBcRsSaZLmq2dFaRAPKJ4zRNxUs5cgmd66ZXv3XnbzfNdcKWakpA8FAU1rlFZutCklWP 7ppVqoCexz7h8MP++//63j+NivtZhx7sf7qx3Z0EF9J6ixBUgw+lMWStNYaJVURCCCGEqPDNV6Xp NowJNYnItOrZXqlvJnw02cQpIGEGMwWpRCSECkCep86lg8FortoU48oYY62z1hrjUAtX8j40dUO7 tqGUbrebZfl45B/c61vevP3aO2/e+C7jJcZaMTZMaZIQFKEamjR50irrnxILSdYazcYXAMC4qtLU C/pjfNIb3/3NB+/9/g+/sqnPuypUqKqqKIJqiDI1Sa2qhBBitKzodUik3lfzWK9k1oYQjU3UfOCG ptz8pYlmOjGf1ZSVyhdp6kRCklrVUJZj55z3nmgeV3rlEKTZ4MyRpiKiisRlx3oUAJPaTr9X9HtV J9u9eeOtWze/tmUuV5I6rFteJ0UIaPpvqarEiytcF4+sCFCpN8HEFUKtI18OhppvKFEf2BccHOr9 j+797pe//qnwSFWjYirqVYOqGGNaBlcQKxERiXVzmVqlNpoqRDc+4gAAC1NJREFUtRhJUDsaFY3h rMXgqc4qjU23XjJIU6eoBoN+p5t1OplqYOZ+v5+m+VxkzbJcBCEEX8WxIsah4hC0Lfib3yfjgdx4 +Y0vXn9zc+1KQi8ldjelTdaOLyTLLClACJWPMroqK5dkK7KeElI7x9Qjr6mVV0UQMAOMkR+xHTry isLjADgQjAQSEBQhoFKoIhTVKHVJghTAod//6N5/3/34lw8PPkzT5Kkka0RNTZLsL975IRDnRrbZ PscKOERdVqi+MDavt6APhx/84lc/Ho4fuCSN1quDg4Ms68xF1tFobK3N83x97dzO+tXtrfOba+cy dFBPjur+o3XNbRe7FaxHlmLHYgvoEGK0VIjAMEAIvjSWAQTvjU0WlqyLZrri1k7Z1lfCxDUrd3kd 0haesAGcVwjBAYgLWoS4cSCy1go0t3LAP3n42c/Wtqjyc02wOECNIRIVESYxhqpqNOq5BK91cZVA BFZYgmFwgFId0ani+imi65wXVDc6V39670cbL6mIqvJgXLhsHrEKgCTtZKoaZPzZp4e72cXra39F WGM4RglYoBv3rgjiJn9iJA6m8TWt/fiiHjHR3o1NYp9cZKZi8ciKk7bkHf8WpVfKtX8Xc3wHUYop QKAY7w6ZQgme/BYAcAE87fuIQyaUIFBi3QFdMFGeqY1mf9N4GRGiF4Ob2DQMScCAxMQFNgHHaIxz oZbVUbtQRtgE9gw2CZZQABZx2z/BkGjddU+pgy4uRydYgiqusELEiqwrLA1WZF1habAi6wpLgxVZ V1garMi6wtJgRdYVlgYrsq6wNFiRdYWlwYqsKywNVmRdYWmwIusKS4MVWVdYGqzIehocbyV+9H+t 8KKwausnYeJcpdS4CRxptMZpSadOOCu8CKzIekocb6jTRNxe4Xli1dwrLA1WZF1habAi6wpLgxVZ V1garMi6wtJgRdYVlgZnmawEivFRvPokSUSkKIq5CyGKQbJiACJVFRFjjCMXNAQNgkk8n8eFOY/B RLQBMxtjqqp6muciKooiVozBQYJ+Pgy8Z5msx3FSGtxTXTK5cMI5eqqcJkQzIXCeoj713Rc8+v+L weeFrET0dC94cuGEZ9oERJ2rwHhJlM2TkucPaYh2ZWI+v88PcT8XZKUWnrGoKdVQk4ZOFy9MVRXq nGvCsuqEbXNhQtMVWc8Q2qPthFjP/F6fugQiEkiSJG3x/BRkjWBmEYmX8xl+ibM4+8/ZZupTUE1E JrOiWAIzMzOB5lJb462TJJkUO2c2gWk5E9n81FxfUpzxp23N02fmSadHnP63Fc026Sd8faIiEC+J agCejaxAK8r758MOELGAUQTnAGGasoGOvrWYi1wYoqgYYFkn76GPShWEVijWab53EVU1oNDsA7QE ZsqBQCiBVqpTmpxm/42ZJiEMy9jisAWTkhaAp7qSR7JWnFil+AthUqOedI0kNWoJBjCkNo4f9e0m XQmLnYVtTiy9ZCUotZOTT6JewgCWSIL2DHpXts+n1RUaX82THZtkXjAYFVXQJOvYJCmqSkiERCgI V81RCFfWJsXYJ9laWfrBoICmrDuvvfo2o2KMCYFBVBtYPeAbSWcBC2pCupMAlUHn8t637t9d43I9 d3lVHGysARSaW88chS/YcZInZCEUOFFOFFxI+fClzW4indBPbl+7Y5CSWtIYXtOCgJj6CyBYagKy ng2cgSdpjex69OxDySSEAJgvvfLtMN4IlQmhMsbkeaoaer2DsizX1jsAmhwBBhrfsYXyaDTY2d00 hgy7te52/0DHg/Tli2/E8MUUSTm9u04rMFOpGIfafenKt7fXvki63ns43N3a3X/wcJphBk26a7VQ m7hOVYZebzAcjnwoQ6hUA0Od4cP7PT+wN69/lZASjCp0UsYk62dd2vNt6j8xlp2sTfKJNmh6rqqK YQWksG+8eidxnaqqQlVoqBiSWHaGIN4XJSuzWJaUJWXpsN9gv8ESc/f1JYySJIXkkI29nVvb7ovA BtAB0hlCKD06HaEFLCF/681v9Q9DJ3sJ0pXgKA7uUFZmZVbD4lic0cQiT00ncx1HiXqqxkVZivi8 fwhDG7ff+JrCAjaE45kBozx/fs28GFh2sqKJ8w+gJWSbD8aYoMTIgJTRvXbpZjmCio0ZI1TVOceM 0WjQZFZBjGQNGKgDOE/R790DkKUb9z8Zd5OLd26/y9gFNhjdGVn+uMZkwAjMWPVL197eWLugodvb p93ta5AUalBnwxJQABegyoeRS5DnmTWJCENd4jZzd67opd3s0oW917aTy4QUIBEQTR5ZWnc8a1ju CVaNtgiZ4askLhuXfZOkDAb05itvfTL4Ra+Q0bgHAqxUoWSj3U4qUgEARR1AAAsoUI3HB9BASuXQ GN25fP6ru9ktYAvIjzpd1RlmIkvkCF18gKjJ7DZAb375O//y839U8lLmEE9UgEKTY7aMGeBVRZBX YzscVIRsrbvluBtKkrK8/srXr1+5A6wBaXyDzJMKnGUsf/87Ptg1YkZVASI4wBGywUjW7aWvv/3X O5uvjAdZKPPUbRvuQI0xBuRBHlSACvDk7CVwJ9seHPLw0Lz1xp9/9fV3gS2VnCdq4kSqHU3JPqMP GLaJ7QY4oHN57/U7X3l3vXP107t9kpNzHBhD3nvvvbVJmnRVzOHB6NOPB3u7t65f+fre2s1SHJAC sLYtVs/c2N/CmZCsExwZCklEKHF5I/QAZDv06s1rJaqtg95HCAMiGxRVMSQGKArXqp2jx2KjHKQb +ct7X7h9+5XvJXipqlLxsGnrjjVZJ9U4prZq/AnvPxztbq8bVLcuf1OV//P9AfBHoibJoBpoTFfE hmwImrBLssxXOhoNDScX9i58+dY7u2u3gDVDaQhs+ESxuvwy6CQsWh6s+XF0IJ7JXDUaFXne9V6s YQBKMpC7CVeK4b/99ie//d3PYXqdNQ8zVAzBxTSfYO11nY4HZriffP+7f//a+e8BXyDsjEdIUxia LAn41iWxGjOps6KRQARVBZdBUQGjAg9SyPt3f/bLD/4BZh9AnR2ugTWuGAfncmezw4NhUfibr77+ Z7f+MsdrhHNB2VBnNAx57gCogjjWJJZgWpV5Lq28EDhDZJ2K1fYI3Zp+KZQh8IoxMCrx8P7B7z/8 +L8+/OQ3+70/ZrkSe5AQ6STTpIb8e+/8XcdeWnOXLc4Bmwzbmsx5QtWop7ZOeFT/73Sio61KRoNw 5CtQAIcB93730Xu//s0vDnv38i53umZc9Hq9gzTNJRhomiW7O1uXL37h1YsXrm/ZS4xzhA4m1Zhg pqPaY81yFnDmydpKAKv1+oEChEoxAg6H+tlo/EnhD+/d+9/B+GDYH5S+ytPOzu7e+b0Lm53z3m+k djfDNpADDtoWY0Wd7woOsFGDbFG5zlCskxAYdWbO+LEAKmBUYR8oAkb7/U8fPPhwv/eJr4aC4Muw tr6zt3vl3Lkrm3xBkRNyIGd06GiUjUeYAo5YSJYfZ5WsETzz2gAoSg8hGIKaytAYqBiFoGL4KCEF lmEElmthmQKOGvEsAhCYPVAAodEBEsAhpkc7SlZoS7q3yCpABVRFOMgMM1ggAl+EyjIbShkALIMF xLACZhCQkLqjLXCG6Ph4LD9Zj+JIqlUAM3ptvVgkEAXIswkxTaHWC1BGhVWNBFZhVeRpcyXBeyiC sYFJAR9zBdbrXrB1vslpEu24mBQnV7WAb9SACE9RMQG8eFWyxlE9sYPqUScZVajCtP/4BJq283mf BZwBss5pBj/RKDspKyAEEGCP7QDxQYOMiMQmhmlyx/ZUXAED4aYukaxxdSnmTZ3JPRzTzLI20yqC 9wghEKsxRkQMm3qmHxdxBUFgXbvm0mjMrW55dIQ5tsK3tPh/jaUesBHTRmsAAAAASUVORK5CYII= "
             height="71.676689"
             width="73.946991"
             style="opacity:0.61728396" />
          <rect
             y="231.6479"
             x="127.14286"
             height="224.28572"
             width="249.28572"
             id="rect2985-4"
             style="fill:none;stroke:#000000;stroke-width:7.30000019;stroke-linecap:butt;stroke-linejoin:miter;stroke-miterlimit:4;stroke-opacity:1;stroke-dasharray:none" />
          <flowRoot
             transform="matrix(1.4590904,0,0,1.4590904,-109.94901,-121.45385)"
             style="font-size:40px;font-style:normal;font-weight:normal;line-height:125%;letter-spacing:0px;word-spacing:0px;fill:#000000;fill-opacity:1;stroke:none;font-family:Sans"
             id="flowRoot3755-4"
             xml:space="preserve"><flowRegion
               id="flowRegion3757-1"><rect
                 y="262.36218"
                 x="149.28572"
                 height="157.85715"
                 width="197.14285"
                 id="rect3759-5" /></flowRegion><flowPara
               style="text-align:center;text-anchor:middle"
               id="flowPara3763-7">Cliente</flowPara></flowRoot>        </g>
      </g>
      <path
         inkscape:export-ydpi="90"
         inkscape:export-xdpi="90"
         inkscape:export-filename="/home/leandro/git/doc-cmovil/img/flowRoot4683.png"
         inkscape:connector-curvature="0"
         id="rect4658"
         d="m 497.89414,127.03969 0,16.15298 -227.94929,0 0,-13.77371 -36.45142,26.06037 -36.41945,26.07897 36.41945,26.06038 36.45142,26.06038 0,-13.75512 227.94929,0 0,11.37585 36.45143,-26.06037 36.45143,-26.06038 -36.45143,-26.07897 -36.45143,-26.06038 z"
         style="fill:none;stroke:#000000;stroke-width:6.39712715;stroke-miterlimit:4;stroke-opacity:1;stroke-dasharray:none" />
      <flowRoot
         inkscape:export-ydpi="90"
         inkscape:export-xdpi="90"
         transform="matrix(2.793807,0,0,2.793807,-124.69426,-966.76161)"
         style="font-size:13px;font-style:normal;font-weight:normal;line-height:125%;letter-spacing:0px;word-spacing:0px;fill:#000000;fill-opacity:1;stroke:none;font-family:Sans"
         id="flowRoot4683"
         xml:space="preserve"><flowRegion
           id="flowRegion4685"><rect
             style="font-size:13px"
             y="402.36218"
             x="165"
             height="41"
             width="215"
             id="rect4687" /></flowRegion><flowPara
           id="flowPara4689">HTTP</flowPara></flowRoot>    </g>
    <rect
       style="fill:#eeffaa;stroke:#000000;stroke-width:7;stroke-miterlimit:4;stroke-opacity:1;stroke-dasharray:none"
       id="rect3016"
       width="427.05771"
       height="162.80101"
       x="-1019.6501"
       y="234.45741"
       rx="69.603333"
       ry="69.603333" />
    <flowRoot
       xml:space="preserve"
       id="flowRoot3018"
       style="font-size:40px;font-style:normal;font-weight:normal;line-height:125%;letter-spacing:0px;word-spacing:0px;fill:#000000;fill-opacity:1;stroke:none;font-family:Sans"
       transform="matrix(1.9816347,0,0,1.9816347,-1099.7786,-716.98954)"><flowRegion
         id="flowRegion3020"><rect
           id="rect3022"
           width="570"
           height="124"
           x="94"
           y="492.36218" /></flowRegion><flowPara
         id="flowPara3024">Login</flowPara></flowRoot>    <rect
       style="fill:#ffb380;stroke:#000000;stroke-width:7;stroke-miterlimit:4;stroke-opacity:1;stroke-dasharray:none"
       id="rect3016-8"
       width="427.05771"
       height="162.80101"
       x="-1019.6501"
       y="632.04303"
       rx="69.603333"
       ry="69.603333" />
    <flowRoot
       xml:space="preserve"
       id="flowRoot3018-0"
       style="font-size:40px;font-style:normal;font-weight:normal;line-height:125%;letter-spacing:0px;word-spacing:0px;fill:#000000;fill-opacity:1;stroke:none;font-family:Sans"
       transform="matrix(1.9816347,0,0,1.9816347,-1087.5482,-311.72121)"><flowRegion
         id="flowRegion3020-3"><rect
           id="rect3022-2"
           width="570"
           height="124"
           x="94"
           y="492.36218" /></flowRegion><flowPara
         id="flowPara3024-0">Main</flowPara></flowRoot>    <rect
       style="fill:#aaeeff;stroke:#000000;stroke-width:7;stroke-miterlimit:4;stroke-opacity:1;stroke-dasharray:none"
       id="rect3016-4"
       width="427.05771"
       height="162.80101"
       x="-396.52808"
       y="632.04303"
       rx="69.603333"
       ry="69.603333" />
    <flowRoot
       xml:space="preserve"
       id="flowRoot3018-2"
       style="font-size:40px;font-style:normal;font-weight:normal;line-height:125%;letter-spacing:0px;word-spacing:0px;fill:#000000;fill-opacity:1;stroke:none;font-family:Sans"
       transform="matrix(1.9816347,0,0,1.9816347,-477.52736,-320.62311)"><flowRegion
         id="flowRegion3020-37"><rect
           id="rect3022-7"
           width="570"
           height="124"
           x="94"
           y="492.36218" /></flowRegion><flowPara
         id="flowPara3024-9">Mapa</flowPara></flowRoot>    <rect
       style="fill:#aaeeff;stroke:#000000;stroke-width:8.28802872;stroke-miterlimit:4;stroke-opacity:1;stroke-dasharray:none"
       id="rect3016-4-6"
       width="427.05771"
       height="228.22514"
       x="-1680.6338"
       y="599.33099"
       rx="69.603333"
       ry="97.574516" />
    <flowRoot
       xml:space="preserve"
       id="flowRoot3018-2-9"
       style="font-size:40px;font-style:normal;font-weight:normal;line-height:125%;letter-spacing:0px;word-spacing:0px;fill:#000000;fill-opacity:1;stroke:none;font-family:Sans"
       transform="matrix(1.9816347,0,0,1.9816347,-1856.6356,-361.2621)"><flowRegion
         id="flowRegion3020-37-6"><rect
           id="rect3022-7-9"
           width="203.17873"
           height="106.87216"
           x="94"
           y="492.36218" /></flowRegion><flowPara
         id="flowPara3024-9-9"
         style="text-align:center;text-anchor:middle">Lista</flowPara><flowPara
         id="flowPara3970"
         style="text-align:center;text-anchor:middle">Farolas</flowPara></flowRoot>    <path
       style="fill:none;stroke:#000000;stroke-width:2;stroke-linecap:butt;stroke-linejoin:miter;stroke-miterlimit:4;stroke-opacity:1;stroke-dasharray:none;marker-end:url(#Arrow1Lend)"
       d="m -787.89173,393.44936 0,234.78462"
       id="path4041"
       inkscape:connector-type="polyline"
       inkscape:connector-curvature="0" />
    <path
       style="fill:none;stroke:#000000;stroke-width:2;stroke-linecap:butt;stroke-linejoin:miter;stroke-miterlimit:4;stroke-opacity:1;stroke-dasharray:none;marker-end:url(#Arrow1Lend)"
       d="m -1021.4205,713.63448 -233.9262,0"
       id="path4043"
       inkscape:connector-type="polyline"
       inkscape:connector-curvature="0" />
    <path
       style="fill:none;stroke:#000000;stroke-width:2;stroke-linecap:butt;stroke-linejoin:miter;stroke-miterlimit:4;stroke-opacity:1;stroke-dasharray:none;marker-end:url(#Arrow1Lend)"
       d="m -588.36283,713.63448 196.0644,0"
       id="path4045"
       inkscape:connector-type="polyline"
       inkscape:connector-curvature="0" />
    <path
       style="fill:#eeaaff;stroke:#000000;stroke-width:7;stroke-miterlimit:4;stroke-opacity:1;stroke-dasharray:none"
       d="m -542.73256,1062.0729 c -12.3812,45.9999 -126.7957,82.0328 -266.1139,82.0328 -137.2082,0 -250.25614,-34.9461 -265.47634,-79.9462 l 0,179.0772 531.59024,0 0,-181.1638 z"
       id="rect4654"
       inkscape:connector-curvature="0" />
    <flowRoot
       xml:space="preserve"
       id="flowRoot4659"
       style="font-size:40px;font-style:normal;font-weight:normal;line-height:125%;letter-spacing:0px;word-spacing:0px;fill:#000000;fill-opacity:1;stroke:none;font-family:Sans"
       transform="matrix(1.0861271,0,0,1.0861271,966.25074,-338.46134)"><flowRegion
         id="flowRegion4661"><rect
           id="rect4663"
           width="684.47937"
           height="118.79394"
           x="-1776.2522"
           y="1383.2882" /></flowRegion><flowPara
         id="flowPara4665">Dialogo Farola</flowPara></flowRoot>    <path
       style="fill:none;stroke:#000000;stroke-width:2;stroke-linecap:butt;stroke-linejoin:miter;stroke-miterlimit:4;stroke-opacity:1;stroke-dasharray:12, 12;stroke-dashoffset:0;marker-end:url(#Arrow1Lend)"
       d="m -1319.1073,812.57708 493.98077,329.44022"
       id="path4717"
       inkscape:connector-type="polyline"
       inkscape:connector-curvature="0" />
    <path
       style="fill:none;stroke:#000000;stroke-width:2;stroke-linecap:butt;stroke-linejoin:miter;stroke-miterlimit:4;stroke-opacity:1;stroke-dasharray:12, 12;stroke-dashoffset:0;marker-end:url(#Arrow1Lend)"
       d="m -315.52933,784.20658 -509.5972,357.81072"
       id="path4719"
       inkscape:connector-type="polyline"
       inkscape:connector-curvature="0" />
    <g
       id="g5679"
       transform="translate(980,88)" />
    <rect
       style="fill:#eeffaa;stroke:#000000;stroke-width:7;stroke-miterlimit:4;stroke-opacity:1;stroke-dasharray:none"
       id="rect3016-9"
       width="427.05771"
       height="939.07855"
       x="-1554.2034"
       y="-1367.0554"
       rx="69.603333"
       ry="47.936722"
       inkscape:export-filename="/home/leandro/git/doc-cmovil/img/downloadlistener.png"
       inkscape:export-xdpi="90"
       inkscape:export-ydpi="90" />
    <flowRoot
       xml:space="preserve"
       id="flowRoot4080"
       style="font-size:40px;font-style:normal;font-weight:normal;line-height:125%;letter-spacing:0px;word-spacing:0px;fill:#000000;fill-opacity:1;stroke:none;font-family:Sans"
       transform="translate(56.373266,20.938199)"
       inkscape:export-filename="/home/leandro/git/doc-cmovil/img/downloadlistener.png"
       inkscape:export-xdpi="90"
       inkscape:export-ydpi="90"><flowRegion
         id="flowRegion4082"><rect
           id="rect4084"
           width="359.21024"
           height="149.90663"
           x="-1518.8654"
           y="-1309.3745" /></flowRegion><flowPara
         id="flowPara4086">Main Activity</flowPara></flowRoot>    <rect
       style="fill:#eeffaa;stroke:#000000;stroke-width:7;stroke-miterlimit:4;stroke-opacity:1;stroke-dasharray:none"
       id="rect3016-9-3"
       width="427.05771"
       height="939.07855"
       x="-2122.7173"
       y="-1367.0554"
       rx="69.603333"
       ry="47.936722"
       inkscape:export-filename="/home/leandro/git/doc-cmovil/img/downloadlistener.png"
       inkscape:export-xdpi="90"
       inkscape:export-ydpi="90" />
    <flowRoot
       xml:space="preserve"
       id="flowRoot4080-6"
       style="font-size:40px;font-style:normal;font-weight:normal;line-height:125%;letter-spacing:0px;word-spacing:0px;fill:#000000;fill-opacity:1;stroke:none;font-family:Sans"
       transform="translate(-536.48635,20.938199)"
       inkscape:export-filename="/home/leandro/git/doc-cmovil/img/downloadlistener.png"
       inkscape:export-xdpi="90"
       inkscape:export-ydpi="90"><flowRegion
         id="flowRegion4082-4"><rect
           id="rect4084-3"
           width="359.21024"
           height="149.90663"
           x="-1518.8654"
           y="-1309.3745" /></flowRegion><flowPara
         id="flowPara4086-1">HTTPAsyncTask</flowPara></flowRoot>    <rect
       style="fill:#e6e6e6;stroke:#000000;stroke-width:7;stroke-miterlimit:4;stroke-opacity:1;stroke-dasharray:none"
       id="rect3016-9-5"
       width="195.54216"
       height="939.07855"
       x="516.01807"
       y="-2090.228"
       rx="31.870132"
       ry="47.936722"
       transform="matrix(0,-1,1,0,0,0)"
       inkscape:export-filename="/home/leandro/git/doc-cmovil/img/downloadlistener.png"
       inkscape:export-xdpi="90"
       inkscape:export-ydpi="90" />
    <flowRoot
       xml:space="preserve"
       id="flowRoot4151"
       style="font-size:40px;font-style:normal;font-weight:normal;line-height:125%;letter-spacing:0px;word-spacing:0px;fill:#000000;fill-opacity:1;stroke:none;font-family:Sans"
       transform="translate(163.19601,34.221747)"
       inkscape:export-filename="/home/leandro/git/doc-cmovil/img/downloadlistener.png"
       inkscape:export-xdpi="90"
       inkscape:export-ydpi="90"><flowRegion
         id="flowRegion4153"><rect
           id="rect4155"
           width="707.10681"
           height="115.96552"
           x="-1965.7568"
           y="-672.97839" /></flowRegion><flowPara
         id="flowPara4157">DownloadListener</flowPara></flowRoot>    <path
       style="fill:none;stroke:#000000;stroke-width:3;stroke-linecap:butt;stroke-linejoin:miter;stroke-miterlimit:4;stroke-opacity:1;stroke-dasharray:none;marker-end:url(#Arrow1Lend-9)"
       d="m -1344.9171,-1190.5805 0,741.04787"
       id="path3072"
       inkscape:connector-curvature="0"
       inkscape:export-filename="/home/leandro/git/doc-cmovil/img/downloadlistener.png"
       inkscape:export-xdpi="90"
       inkscape:export-ydpi="90" />
    <path
       style="fill:none;stroke:#000000;stroke-width:3;stroke-linecap:butt;stroke-linejoin:miter;stroke-miterlimit:4;stroke-opacity:1;stroke-dasharray:none;marker-end:none;marker-mid:none"
       d="m -1348.7434,-556.01491 -590.647,0 0,-599.21029 594.4733,0"
       id="path3072-6"
       inkscape:connector-curvature="0"
       inkscape:transform-center-x="102.57415"
       inkscape:transform-center-y="-46.669045"
       inkscape:export-filename="/home/leandro/git/doc-cmovil/img/downloadlistener.png"
       inkscape:export-xdpi="90"
       inkscape:export-ydpi="90" />
    <path
       style="fill:none;stroke:#000000;stroke-width:3;stroke-linecap:butt;stroke-linejoin:miter;stroke-opacity:1;stroke-miterlimit:4;stroke-dasharray:none;marker-end:url(#Arrow1Lend-9-8)"
       d="m -1937.4726,-555.59864 591.1413,0"
       id="path5082"
       inkscape:connector-curvature="0"
       inkscape:export-filename="/home/leandro/git/doc-cmovil/img/downloadlistener.png"
       inkscape:export-xdpi="90"
       inkscape:export-ydpi="90" />
  </g>
</svg>
